{
  "images" : [
    {
      "idiom" : "universal",
      "filename" : "Normal.pdf",
      "resizing" : {
        "mode" : "9-part",
        "center" : {
          "mode" : "tile",
          "width" : 1,
          "height" : 1
        },
        "cap-insets" : {
          "bottom" : 24,
          "top" : 23,
          "right" : 7,
          "left" : 7
        }
      }
    }
  ],
  "info" : {
    "version" : 1,
    "author" : "xcode"
  }
}